…
#Aplicamos la función a los tweets
tweets_limpios <- tweets %>% mutate(texto_limpio = map(.x = texto, .f = limpiar))

#Volvemos a ejecutar el código para obtener las palabras
bigrama_tweets <- tweets_limpios %>% unnest_tokens(bigrama, texto_limpio, token = "ngrams", n=2)

#Los mostramos
bigrama_tweets %>% count(bigrama, sort = TRUE)

# # A tibble: 116,676 x 2
#    bigrama         n
#    <chr>       <int>
#  1 de la        2302
#  2 a la         1310
#  3 a los        1109
#  4 en el        1022
#  5 de los        998
#  6 en la         957
#  7 y la          902
#  8 el gobierno   709
#  9 a las         570
# 10 de las        569
# # ... with 116,666 more rows

bigramas_separados <- bigrama_tweets %>% separate(bigrama, c("palabra1", "palabra2"), sep=" ")

bigramas_sin_stopwords <- bigramas_separados %>% filter(!palabra1 %in% stopwords("spanish")) %>% filter(!palabra2 %in% stopwords("spanish")) %>% filter(!palabra1 %in% stopwords()) %>% filter(!palabra2 %in% stopwords()) %>% na.omit()

bigrama_tweets_limpios <- bigramas_sin_stopwords %>% count(palabra1, palabra2, sort=TRUE)

bigrama_tweets_limpios

# # A tibble: 37,708 x 3
#    palabra1   palabra2       n
#    <chr>      <chr>      <int>
#  1 muchas     gracias       96
#  2 hace       años          95
#  3 sánchez    debe          82
#  4 justicia   social        79
#  5 derechos   sociales      77
#  6 servicios  públicos      75
#  7 toda       españa        75
#  8 fondos     europeos      68
#  9 gobierno   debe          66
# 10 seguiremos trabajando    66
# # ... with 37,698 more rows
…
```

#### Trigramas

En este caso, para buscar los trigramas, vamos a seguir los mismos pasos descritos en la sección anterior, pero en este caso, n será 3.

```{r}
trigrama_tweets <- tweets_limpios %>% unnest_tokens(trigrama, texto_limpio, token = "ngrams", n=3)

#Los mostramos
trigrama_tweets %>% count(trigrama, sort = TRUE)

# # A tibble: 208,926 x 2
#    trigrama             n
#    <chr>            <int>
#  1 NA                 192
#  2 a todos los        154
#  3 estado de alarma   144
#  4 el gobierno de     128
#  5 todo mi apoyo      114
#  6 en el congreso     107
#  7 el estado de       104
#  8 a las familias     103
#  9 de la ue            99
# 10 de nuestro país     97
# # ... with 208,916 more rows
…
